Richness by combined zones
…
Richness in each ecoregion

div_df %>%
  group_by(biome, pol_group) %>% 
  summarise(mean = mean(richness, na.rm = TRUE),
            median = median(richness),
            min = min(richness, na.rm = TRUE), 
            max = max(richness, na.rm = TRUE)) %>% 
  arrange(desc(mean))

## # A tibble: 49 x 6
## # Groups:   biome [7]
##    biome                    pol_group  mean median   min   max
##    <fct>                    <fct>     <dbl>  <dbl> <dbl> <dbl>
##  1 Tropical Wet Forests     butterfly 58.4   53.9  3.71  249. 
##  2 Temperate Sierras        butterfly 37.4   27.7  0.590 248. 
##  3 Tropical Dry Forests     butterfly 36.9   32.5  0.569 198. 
##  4 Mediterranean California butterfly 15.0   13.7  1.96  120. 
##  5 Tropical Wet Forests     moth      13.5    9.30 0.431 109. 
##  6 Semi-arid Highlands      butterfly 11.4    5.87 0.465 132. 
##  7 Great Plains             butterfly 11.1    7.62 0.734  83.8
##  8 Temperate Sierras        bee       10.8    8.65 0.824  68.4
##  9 Temperate Sierras        moth      10.2    7.11 0.151 121. 
## 10 Tropical Wet Forests     bee        9.04   6.64 0.633  70.1
## #  with 39 more rows
…
anp_id_df %>%
  filter(pol_group == 'bee') %>% 
  group_by(pol_group, ID_ANP) %>% 
  summarise(mean = mean(richness, na.rm = TRUE),
            median = median(richness),
            min = min(richness, na.rm = TRUE), 
            max = max(richness, na.rm = TRUE)) %>% 
  arrange(desc(mean))

## # A tibble: 428 x 6
## # Groups:   pol_group [1]
##    pol_group ID_ANP      mean median   min   max
##    <fct>     <fct>      <dbl>  <dbl> <dbl> <dbl>
##  1 bee       24          54.2   57.9  38.7  65.6
##  2 bee       8.1.07.154  48.4   48.8  33.0  63.6
##  3 bee       31          41.5   41.6  36.8  44.1
##  4 bee       9           40.3   41.0  35.2  42.4
##  5 bee       8.1.03.096  37.9   35.7  13.4  68.4
##  6 bee       428         37.7   37.7  37.7  37.7
##  7 bee       17          32.3   32.3  32.3  32.3
##  8 bee       482         32.3   32.3  32.3  32.3
##  9 bee       11          31.8   27.4  16.0  65.7
## 10 bee       5.8.08.148  31.8   31.8  31.8  31.8
## #  with 418 more rows
…
